('C:\\Users\\avine\\Documents\\Qtpy\\Expenses Tool\\build\\main\\PKG-00.pkg',
 {'BINARY': 1,
  'DATA': 1,
  'EXECUTABLE': 1,
  'EXTENSION': 1,
  'PYMODULE': 1,
  'PYSOURCE': 1,
  'PYZ': 0},
 [('PYZ-00.pyz',
   'C:\\Users\\avine\\Documents\\Qtpy\\Expenses Tool\\build\\main\\PYZ-00.pyz',
   'PYZ'),
  ('struct',
   'c:\\users\\avine\\anaconda3\\envs\\qt\\lib\\struct.pyo',
   'PYMODULE'),
  ('pyimod01_os_path',
   'c:\\users\\avine\\anaconda3\\envs\\qt\\lib\\site-packages\\PyInstaller\\loader\\pyimod01_os_path.pyc',
   'PYMODULE'),
  ('pyimod02_archive',
   'c:\\users\\avine\\anaconda3\\envs\\qt\\lib\\site-packages\\PyInstaller\\loader\\pyimod02_archive.pyc',
   'PYMODULE'),
  ('pyimod03_importers',
   'c:\\users\\avine\\anaconda3\\envs\\qt\\lib\\site-packages\\PyInstaller\\loader\\pyimod03_importers.pyc',
   'PYMODULE'),
  ('pyiboot01_bootstrap',
   'c:\\users\\avine\\anaconda3\\envs\\qt\\lib\\site-packages\\PyInstaller\\loader\\pyiboot01_bootstrap.py',
   'PYSOURCE'),
  ('pyi_rth_pkgres',
   'c:\\users\\avine\\anaconda3\\envs\\qt\\lib\\site-packages\\PyInstaller\\loader\\rthooks\\pyi_rth_pkgres.py',
   'PYSOURCE'),
  ('pyi_rth_win32comgenpy',
   'c:\\users\\avine\\anaconda3\\envs\\qt\\lib\\site-packages\\PyInstaller\\loader\\rthooks\\pyi_rth_win32comgenpy.py',
   'PYSOURCE'),
  ('pyi_rth_multiprocessing',
   'c:\\users\\avine\\anaconda3\\envs\\qt\\lib\\site-packages\\PyInstaller\\loader\\rthooks\\pyi_rth_multiprocessing.py',
   'PYSOURCE'),
  ('pyi_rth_traitlets',
   'c:\\users\\avine\\anaconda3\\envs\\qt\\lib\\site-packages\\PyInstaller\\loader\\rthooks\\pyi_rth_traitlets.py',
   'PYSOURCE'),
  ('pyi_rth__tkinter',
   'c:\\users\\avine\\anaconda3\\envs\\qt\\lib\\site-packages\\PyInstaller\\loader\\rthooks\\pyi_rth__tkinter.py',
   'PYSOURCE'),
  ('pyi_rth_certifi',
   'c:\\users\\avine\\anaconda3\\envs\\qt\\lib\\site-packages\\PyInstaller\\loader\\rthooks\\pyi_rth_certifi.py',
   'PYSOURCE'),
  ('pyi_rth_pyside2',
   'c:\\users\\avine\\anaconda3\\envs\\qt\\lib\\site-packages\\PyInstaller\\loader\\rthooks\\pyi_rth_pyside2.py',
   'PYSOURCE'),
  ('pyi_rth_pyqt5',
   'c:\\users\\avine\\anaconda3\\envs\\qt\\lib\\site-packages\\PyInstaller\\loader\\rthooks\\pyi_rth_pyqt5.py',
   'PYSOURCE'),
  ('pyi_rth_mplconfig',
   'c:\\users\\avine\\anaconda3\\envs\\qt\\lib\\site-packages\\PyInstaller\\loader\\rthooks\\pyi_rth_mplconfig.py',
   'PYSOURCE'),
  ('pyi_rth_mpldata',
   'c:\\users\\avine\\anaconda3\\envs\\qt\\lib\\site-packages\\PyInstaller\\loader\\rthooks\\pyi_rth_mpldata.py',
   'PYSOURCE'),
  ('main',
   'C:\\Users\\avine\\Documents\\Qtpy\\Expenses Tool\\main.py',
   'PYSOURCE'),
  ('main.exe.manifest',
   'C:\\Users\\avine\\Documents\\Qtpy\\Expenses '
   'Tool\\build\\main\\main.exe.manifest',
   'BINARY')],
 True,
 False,
 False,
 [])
